<?xml version="1.0" encoding="UTF-8" standalone="no"?>
<!-- Created with Inkscape (http://www.inkscape.org/) -->

<svg
   width="140.58543mm"
   height="126.68742mm"
   viewBox="0 0 140.58544 126.68742"
   version="1.1"
   id="svg8"
   inkscape:version="1.1.2 (0a00cf5339, 2022-02-04)"
   sodipodi:docname="ethereumblocknplusone.svg"
   inkscape:export-filename="/home/benjamin/Desktop/DFINITY/Slides/slideFigures/ethereumblocknplusone.png"
   inkscape:export-xdpi="96.809998"
   inkscape:export-ydpi="96.809998"
   xmlns:inkscape="http://www.inkscape.org/namespaces/inkscape"
   xmlns:sodipodi="http://sodipodi.sourceforge.net/DTD/sodipodi-0.dtd"
   xmlns="http://www.w3.org/2000/svg"
   xmlns:svg="http://www.w3.org/2000/svg"
   xmlns:rdf="http://www.w3.org/1999/02/22-rdf-syntax-ns#"
   xmlns:cc="http://creativecommons.org/ns#"
   xmlns:dc="http://purl.org/dc/elements/1.1/">
  <defs
     id="defs2">
    <marker
       inkscape:isstock="true"
       style="overflow:visible"
       id="marker2164"
       refX="0"
       refY="0"
       orient="auto"
       inkscape:stockid="Arrow1Lstart">
      <path
         transform="matrix(0.8,0,0,0.8,10,0)"
         style="fill:#000000;fill-opacity:1;fill-rule:evenodd;stroke:#000000;stroke-width:1pt;stroke-opacity:1"
         d="M 0,0 5,-5 -12.5,0 5,5 Z"
         id="path2162" />
    </marker>
    <marker
       inkscape:isstock="true"
       style="overflow:visible"
       id="marker2074"
       refX="0"
       refY="0"
       orient="auto"
       inkscape:stockid="Arrow1Lend">
      <path
         inkscape:connector-curvature="0"
         transform="matrix(-0.8,0,0,-0.8,-10,0)"
         style="fill:#000000;fill-opacity:1;fill-rule:evenodd;stroke:#000000;stroke-width:1pt;stroke-opacity:1"
         d="M 0,0 5,-5 -12.5,0 5,5 Z"
         id="path2072" />
    </marker>
    <marker
       inkscape:stockid="Arrow1Lend"
       orient="auto"
       refY="0"
       refX="0"
       id="Arrow1Lend-7"
       style="overflow:visible"
       inkscape:isstock="true">
      <path
         inkscape:connector-curvature="0"
         id="path941-3"
         d="M 0,0 5,-5 -12.5,0 5,5 Z"
         style="fill:#000000;fill-opacity:1;fill-rule:evenodd;stroke:#000000;stroke-width:1pt;stroke-opacity:1"
         transform="matrix(-0.8,0,0,-0.8,-10,0)" />
    </marker>
  </defs>
  <sodipodi:namedview
     id="base"
     pagecolor="#ffffff"
     bordercolor="#666666"
     borderopacity="1.0"
     inkscape:pageopacity="0.0"
     inkscape:pageshadow="2"
     inkscape:zoom="0.98994952"
     inkscape:cx="184.85791"
     inkscape:cy="274.76148"
     inkscape:document-units="mm"
     inkscape:current-layer="layer1"
     showgrid="false"
     inkscape:window-width="1551"
     inkscape:window-height="773"
     inkscape:window-x="2013"
     inkscape:window-y="143"
     inkscape:window-maximized="0"
     inkscape:pagecheckerboard="0" />
  <metadata
     id="metadata5">
    <rdf:RDF>
      <cc:Work
         rdf:about="">
        <dc:format>image/svg+xml</dc:format>
        <dc:type
           rdf:resource="http://purl.org/dc/dcmitype/StillImage" />
      </cc:Work>
    </rdf:RDF>
  </metadata>
  <g
     inkscape:label="Layer 1"
     inkscape:groupmode="layer"
     id="layer1"
     transform="translate(-150.1826,-59.454649)">
    <text
       xml:space="preserve"
       style="font-style:normal;font-weight:normal;font-size:10.5833px;line-height:1.25;font-family:sans-serif;letter-spacing:0px;word-spacing:0px;fill:#000000;fill-opacity:1;stroke:none;stroke-width:0.264583"
       x="13.701636"
       y="63.883183"
       id="text823" />
    <rect
       style="opacity:1;vector-effect:none;fill:none;fill-opacity:1;stroke:#000000;stroke-width:2.50909;stroke-linecap:butt;stroke-linejoin:miter;stroke-miterlimit:4;stroke-dasharray:none;stroke-dashoffset:0;stroke-opacity:1"
       id="rect815-7"
       width="138.07634"
       height="124.17834"
       x="151.43715"
       y="60.709194" />
    <text
       xml:space="preserve"
       style="font-style:normal;font-weight:normal;font-size:10.5833px;line-height:1.25;font-family:sans-serif;letter-spacing:0px;word-spacing:0px;fill:#000000;fill-opacity:1;stroke:none;stroke-width:0.264583"
       x="175.56865"
       y="73.332588"
       id="text827-2"><tspan
         sodipodi:role="line"
         id="tspan825-0"
         x="175.56865"
         y="73.332588"
         style="stroke-width:0.264583">Block <tspan
   style="font-style:italic"
   id="tspan1465">h + 1</tspan> (<tspan
   style="font-style:italic"
   id="tspan4519">n''</tspan>) </tspan></text>
    <text
       xml:space="preserve"
       style="font-style:normal;font-weight:normal;font-size:10.5833px;line-height:1.25;font-family:sans-serif;letter-spacing:0px;word-spacing:0px;baseline-shift:baseline;fill:#000000;fill-opacity:1;stroke:none;stroke-width:0.264583"
       x="155.36708"
       y="86.977531"
       id="text831-6"><tspan
         sodipodi:role="line"
         x="155.36708"
         y="86.977531"
         style="font-size:10.5833px;baseline-shift:baseline;stroke-width:0.264583"
         id="tspan1359">Reward <tspan
   style="font-style:italic;font-variant:normal;font-weight:normal;font-stretch:normal;font-size:10.5833px;font-family:sans-serif;-inkscape-font-specification:'sans-serif Italic';baseline-shift:baseline"
   id="tspan18696">pk<tspan
   style="font-size:10.5833px;baseline-shift:sub"
   id="tspan8089">D</tspan></tspan> 10 ETH</tspan><tspan
         sodipodi:role="line"
         x="155.36708"
         y="100.20666"
         style="font-size:10.5833px;baseline-shift:baseline;stroke-width:0.264583"
         id="tspan10905"><tspan
   style="font-style:italic;font-size:10.5833px"
   id="tspan13435">pk</tspan><tspan
   style="font-style:italic;font-size:10.5833px;baseline-shift:sub"
   id="tspan13423">E</tspan>'s smart contract</tspan><tspan
         sodipodi:role="line"
         x="155.36708"
         y="113.43578"
         style="font-style:italic;font-size:10.5833px;baseline-shift:baseline;stroke-width:0.264583"
         id="tspan15868"><tspan
   id="tspan20226"
   style="font-style:normal;font-size:10.5833px;baseline-shift:baseline;stroke-width:0.264583">stdout: </tspan>2 * h</tspan></text>
    <text
       xml:space="preserve"
       style="font-style:normal;font-weight:normal;font-size:10.5833px;line-height:1.25;font-family:sans-serif;letter-spacing:0px;word-spacing:0px;fill:#000000;fill-opacity:1;stroke:none;stroke-width:0.264583"
       x="193.61836"
       y="63.883183"
       id="text823-4" />
  </g>
</svg>
